<?xml version="1.0" encoding="UTF-8"?>
<svg width="16px" height="2px" viewBox="0 0 16 2" version="1.1" xmlns="http://www.w3.org/2000/svg" xmlns:xlink="http://www.w3.org/1999/xlink">
    <!-- Generator: sketchtool 41 (35326) - http://www.bohemiancoding.com/sketch -->
    <title>8711238E-1C18-46E6-A278-8964A1A4D140</title>
    <desc>Created with sketchtool.</desc>
    <defs></defs>
    <g id="Page-1" stroke="none" stroke-width="1" fill="none" fill-rule="evenodd">
        <g id="02-mobile-menu" transform="translate(-284.000000, -44.000000)" fill="var(--fern-green)">
            <g id="org-header" transform="translate(20.000000, 39.000000)">
                <rect id="atm-icn-mnu-close" x="264" y="5" width="16" height="2"></rect>
            </g>
        </g>
    </g>
</svg>